lm_fit for covid infection and temperature
…
coivd data source and import data

weekdata <- read.csv("https://opendata.ecdc.europa.eu/covid19/testing/csv/data.csv", na.strings = "", fileEncoding = "UTF-8-BOM")

sum(weekdata$new_cases)

## [1] 74166815

weekdata %>% 
 group_by(region_name) %>% 
 summarise(cases_sum = sum(new_cases), cases_max = max(new_cases)) %>% 
 arrange(desc(cases_sum))

## # A tibble: 155 x 3
##    region_name cases_sum cases_max
##    <chr>           <int>     <int>
##  1 France        7136186    337839
##  2 Germany       6542800    403168
##  3 Italy         5210723    244139
##  4 Spain         5120948    244122
##  5 Poland        3811375    194006
##  6 Netherlands   2880127    157250
##  7 Czechia       2338281    128574
##  8 Portugal      2206996     86675
##  9 Belgium       1958548    125644
## 10 Romania       1778812    103649
## # ... with 145 more rows
…
